9000_CD/9_Messdaten/Testaufbau/VergleichOszi_Sensor/T0000CH1.CSV

Model,MSO2024
Firmware Version,1.35

Point Format,Y,
Horizontal Units,S,
Horizontal Scale,0.004,
Sample Interval,3.2e-07,
Filter Frequency,2e+08,
Record Length,125000,
Gating,0.0% to 100.0%,
Probe Attenuation,10,
Vertical Units,V,
Vertical Offset,0,
Vertical Scale,0.5,
Label,,
TIME,CH1,CH1 Peak Detect
-1.98000e-02,1.64,1.68
-1.97997e-02,1.66,1.62
-1.97994e-02,1.66,1.68
-1.97990e-02,1.66,1.62
-1.97987e-02,1.62,1.68
-1.97984e-02,1.64,1.62
-1.97981e-02,1.64,1.66
-1.97978e-02,1.64,1.6
-1.97974e-02,1.66,1.68
-1.97971e-02,1.64,1.6
-1.97968e-02,1.66,1.68
-1.97965e-02,1.64,1.62
-1.97962e-02,1.64,1.68
-1.97958e-02,1.64,1.62
-1.97955e-02,1.64,1.68
-1.97952e-02,1.64,1.6
-1.97949e-02,1.64,1.68
-1.97946e-02,1.64,1.6
-1.97942e-02,1.64,1.68
-1.97939e-02,1.62,1.6
-1.97936e-02,1.62,1.66
-1.97933e-02,1.62,1.6
-1.97930e-02,1.64,1.66
-1.97926e-02,1.64,1.6
-1.97923e-02,1.62,1.66
-1.97920e-02,1.62,1.6
-1.97917e-02,1.62,1.66
-1.97914e-02,1.64,1.6
-1.97910e-02,1.62,1.66
-1.97907e-02,1.64,1.6
-1.97904e-02,1.64,1.66
-1.97901e-02,1.62,1.6
-1.97898e-02,1.62,1.66
-1.97894e-02,1.64,1.58
-1.97891e-02,1.62,1.66
-1.97888e-02,1.66,1.6
-1.97885e-02,1.62,1.66
-1.97882e-02,1.62,1.58
-1.97878e-02,1.66,1.66
-1.97875e-02,1.62,1.58
-1.97872e-02,1.62,1.66
-1.97869e-02,1.64,1.58
-1.97866e-02,1.62,1.66
-1.97862e-02,1.62,1.6
-1.97859e-02,1.62,1.66
-1.97856e-02,1.64,1.6
-1.97853e-02,1.62,1.66
-1.97850e-02,1.6,1.6
-1.97846e-02,1.6,1.68
-1.97843e-02,1.62,1.6
-1.97840e-02,1.64,1.66
-1.97837e-02,1.64,1.6
-1.97834e-02,1.62,1.66
-1.97830e-02,1.64,1.6
-1.97827e-02,1.62,1.68
-1.97824e-02,1.64,1.58
-1.97821e-02,1.64,1.68
-1.97818e-02,1.64,1.6
-1.97814e-02,1.62,1.68
-1.97811e-02,1.62,1.6
-1.97808e-02,1.64,1.66
-1.97805e-02,1.64,1.6
-1.97802e-02,1.64,1.66
-1.97798e-02,1.64,1.6
-1.97795e-02,1.62,1.66
-1.97792e-02,1.66,1.6
-1.97789e-02,1.62,1.68
-1.97786e-02,1.64,1.6
-1.97782e-02,1.64,1.68
-1.97779e-02,1.64,1.6
-1.97776e-02,1.66,1.68
-1.97773e-02,1.66,1.6
-1.97770e-02,1.64,1.68
-1.97766e-02,1.64,1.62
-1.97763e-02,1.62,1.68
-1.97760e-02,1.64,1.62
-1.97757e-02,1.64,1.68
-1.97754e-02,1.64,1.6
-1.97750e-02,1.64,1.68
-1.97747e-02,1.64,1.62
-1.97744e-02,1.64,1.68
-1.97741e-02,1.64,1.6
-1.97738e-02,1.64,1.66
-1.97734e-02,1.62,1.6
-1.97731e-02,1.64,1.66
-1.97728e-02,1.64,1.6
-1.97725e-02,1.64,1.68
-1.97722e-02,1.64,1.6
-1.97718e-02,1.66,1.68
-1.97715e-02,1.62,1.58
-1.97712e-02,1.66,1.68
-1.97709e-02,1.62,1.62
-1.97706e-02,1.66,1.68
-1.97702e-02,1.64,1.62
-1.97699e-02,1.62,1.68
-1.97696e-02,1.64,1.62
-1.97693e-02,1.64,1.68
-1.97690e-02,1.64,1.62
-1.97686e-02,1.64,1.68
-1.97683e-02,1.64,1.62
-1.97680e-02,1.64,1.68
-1.97677e-02,1.64,1.6
-1.97674e-02,1.64,1.68
-1.97670e-02,1.64,1.62
-1.97667e-02,1.64,1.68
-1.97664e-02,1.64,1.6
-1.97661e-02,1.64,1.68
-1.97658e-02,1.64,1.62
-1.97654e-02,1.64,1.68
-1.97651e-02,1.62,1.62
-1.97648e-02,1.66,1.66
-1.97645e-02,1.64,1.62
-1.97642e-02,1.66,1.68
-1.97638e-02,1.64,1.62
-1.97635e-02,1.64,1.68
-1.97632e-02,1.64,1.62
-1.97629e-02,1.64,1.68
-1.97626e-02,1.64,1.62
-1.97622e-02,1.66,1.68
-1.97619e-02,1.64,1.62
-1.97616e-02,1.66,1.7
-1.97613e-02,1.64,1.62
-1.97610e-02,1.64,1.68
-1.97606e-02,1.64,1.6
-1.97603e-02,1.64,1.68
-1.97600e-02,1.64,1.62
-1.97597e-02,1.64,1.68
-1.97594e-02,1.66,1.62
-1.97590e-02,1.64,1.68
-1.97587e-02,1.66,1.62
-1.97584e-02,1.64,1.7
-1.97581e-02,1.64,1.62
-1.97578e-02,1.66,1.68
-1.97574e-02,1.66,1.62
-1.97571e-02,1.64,1.68
-1.97568e-02,1.68,1.62
-1.97565e-02,1.64,1.7
-1.97562e-02,1.66,1.62
-1.97558e-02,1.66,1.7
-1.97555e-02,1.64,1.62
-1.97552e-02,1.64,1.68
-1.97549e-02,1.64,1.62
-1.97546e-02,1.66,1.68
-1.97542e-02,1.64,1.62
-1.97539e-02,1.64,1.68
-1.97536e-02,1.64,1.62
-1.97533e-02,1.64,1.68
-1.97530e-02,1.64,1.6
-1.97526e-02,1.62,1.68
-1.97523e-02,1.64,1.62
-1.97520e-02,1.66,1.68
-1.97517e-02,1.64,1.62
-1.97514e-02,1.66,1.68
-1.97510e-02,1.66,1.6
-1.97507e-02,1.62,1.66
-1.97504e-02,1.64,1.6
-1.97501e-02,1.64,1.66
-1.97498e-02,1.64,1.6
-1.97494e-02,1.62,1.68
-1.97491e-02,1.62,1.6
-1.97488e-02,1.64,1.66
-1.97485e-02,1.62,1.6
-1.97482e-02,1.64,1.66
-1.97478e-02,1.62,1.6
-1.97475e-02,1.62,1.66
-1.97472e-02,1.64,1.6
-1.97469e-02,1.62,1.66
-1.97466e-02,1.64,1.6
-1.97462e-02,1.64,1.66
-1.97459e-02,1.64,1.6
-1.97456e-02,1.64,1.66
-1.97453e-02,1.64,1.62
-1.97450e-02,1.64,1.66
-1.97446e-02,1.64,1.6
-1.97443e-02,1.64,1.66
-1.97440e-02,1.64,1.6
-1.97437e-02,1.62,1.68
-1.97434e-02,1.64,1.6
-1.97430e-02,1.66,1.68
-1.97427e-02,1.64,1.6
-1.97424e-02,1.66,1.68
-1.97421e-02,1.62,1.56
-1.97418e-02,1.66,1.68
-1.97414e-02,1.64,1.6
-1.97411e-02,1.66,1.7
-1.97408e-02,1.66,1.6
-1.97405e-02,1.62,1.68
-1.97402e-02,1.64,1.6
-1.97398e-02,1.66,1.68
-1.97395e-02,1.62,1.6
-1.97392e-02,1.64,1.68
-1.97389e-02,1.64,1.62
-1.97386e-02,1.64,1.68
-1.97382e-02,1.66,1.62
-1.97379e-02,1.64,1.68
-1.97376e-02,1.66,1.62
-1.97373e-02,1.64,1.68
-1.97370e-02,1.66,1.6
-1.97366e-02,1.64,1.68
-1.97363e-02,1.64,1.6
-1.97360e-02,1.66,1.68
-1.97357e-02,1.66,1.6
-1.97354e-02,1.66,1.68
-1.97350e-02,1.66,1.62
-1.97347e-02,1.62,1.68
-1.97344e-02,1.66,1.62
-1.97341e-02,1.64,1.68
-1.97338e-02,1.64,1.6
-1.97334e-02,1.66,1.68
-1.97331e-02,1.66,1.62
-1.97328e-02,1.66,1.68
-1.97325e-02,1.64,1.62
-1.97322e-02,1.64,1.68
-1.97318e-02,1.64,1.62
-1.97315e-02,1.66,1.68
-1.97312e-02,1.64,1.62
-1.97309e-02,1.62,1.68
-1.97306e-02,1.64,1.62
-1.97302e-02,1.64,1.68
-1.97299e-02,1.64,1.6
-1.97296e-02,1.64,1.66
-1.97293e-02,1.64,1.6
-1.97290e-02,1.64,1.68
-1.97286e-02,1.64,1.6
-1.97283e-02,1.64,1.68
-1.97280e-02,1.64,1.6
-1.97277e-02,1.64,1.68
-1.97274e-02,1.62,1.6
-1.97270e-02,1.64,1.68
-1.97267e-02,1.64,1.6
-1.97264e-02,1.66,1.68
-1.97261e-02,1.64,1.62
-1.97258e-02,1.64,1.68
-1.97254e-02,1.64,1.6
-1.97251e-02,1.64,1.68
-1.97248e-02,1.64,1.6
-1.97245e-02,1.64,1.68
-1.97242e-02,1.66,1.62
-1.97238e-02,1.64,1.68
-1.97235e-02,1.64,1.6
-1.97232e-02,1.66,1.66
-1.97229e-02,1.64,1.6
-1.97226e-02,1.62,1.68
-1.97222e-02,1.64,1.6
-1.97219e-02,1.62,1.68
-1.97216e-02,1.66,1.62
-1.97213e-02,1.64,1.68
-1.97210e-02,1.66,1.6
-1.97206e-02,1.66,1.68
-1.97203e-02,1.64,1.6
-1.97200e-02,1.66,1.68
-1.97197e-02,1.64,1.62
-1.97194e-02,1.64,1.68
-1.97190e-02,1.64,1.62
-1.97187e-02,1.64,1.68
-1.97184e-02,1.64,1.6
-1.97181e-02,1.62,1.68
-1.97178e-02,1.64,1.6
-1.97174e-02,1.64,1.66
-1.97171e-02,1.62,1.6
-1.97168e-02,1.64,1.66
-1.97165e-02,1.64,1.58
-1.97162e-02,1.64,1.66
-1.97158e-02,1.62,1.58
-1.97155e-02,1.62,1.66
-1.97152e-02,1.66,1.6
-1.97149e-02,1.62,1.66
-1.97146e-02,1.64,1.6
-1.97142e-02,1.64,1.66
-1.97139e-02,1.6,1.6
-1.97136e-02,1.64,1.66
-1.97133e-02,1.62,1.58
-1.97130e-02,1.64,1.66
-1.97126e-02,1.62,1.6
-1.97123e-02,1.62,1.66
-1.97120e-02,1.62,1.6
-1.97117e-02,1.62,1.66
-1.97114e-02,1.62,1.6
-1.97110e-02,1.62,1.66
-1.97107e-02,1.62,1.6
-1.97104e-02,1.62,1.66
-1.97101e-02,1.62,1.6
-1.97098e-02,1.62,1.66
-1.97094e-02,1.66,1.6
-1.97091e-02,1.64,1.66
-1.97088e-02,1.64,1.6
-1.97085e-02,1.62,1.66
-1.97082e-02,1.64,1.6
-1.97078e-02,1.64,1.68
-1.97075e-02,1.64,1.62
-1.97072e-02,1.64,1.68
-1.97069e-02,1.62,1.6
-1.97066e-02,1.66,1.66
-1.97062e-02,1.64,1.6
-1.97059e-02,1.64,1.66
-1.97056e-02,1.62,1.6
-1.97053e-02,1.62,1.68
-1.97050e-02,1.64,1.6
-1.97046e-02,1.62,1.68
-1.97043e-02,1.62,1.6
-1.97040e-02,1.64,1.66
-1.97037e-02,1.62,1.6
-1.97034e-02,1.64,1.66
-1.97030e-02,1.62,1.6
-1.97027e-02,1.62,1.66
-1.97024e-02,1.64,1.6
-1.97021e-02,1.62,1.66
-1.97018e-02,1.64,1.6
-1.97014e-02,1.64,1.66
-1.97011e-02,1.64,1.6
-1.97008e-02,1.62,1.66
-1.97005e-02,1.62,1.6
-1.97002e-02,1.62,1.66
-1.96998e-02,1.64,1.6
-1.96995e-02,1.64,1.66
-1.96992e-02,1.64,1.6
-1.96989e-02,1.62,1.66
-1.96986e-02,1.64,1.6
-1.96982e-02,1.62,1.66
-1.96979e-02,1.62,1.6
-1.96976e-02,1.66,1.68
-1.96973e-02,1.62,1.6
-1.96970e-02,1.62,1.68
-1.96966e-02,1.64,1.6
-1.96963e-02,1.62,1.66
-1.96960e-02,1.64,1.6
-1.96957e-02,1.64,1.66
-1.96954e-02,1.64,1.6
-1.96950e-02,1.64,1.68
-1.96947e-02,1.64,1.62
-1.96944e-02,1.66,1.68
-1.96941e-02,1.64,1.6
-1.96938e-02,1.66,1.68
-1.96934e-02,1.64,1.62
-1.96931e-02,1.62,1.68
-1.96928e-02,1.66,1.6
-1.96925e-02,1.64,1.68
-1.96922e-02,1.64,1.6
-1.96918e-02,1.64,1.68
-1.96915e-02,1.62,1.62
-1.96912e-02,1.66,1.68
-1.96909e-02,1.62,1.6
-1.96906e-02,1.64,1.68
-1.96902e-02,1.64,1.6
-1.96899e-02,1.62,1.68
-1.96896e-02,1.66,1.6
-1.96893e-02,1.64,1.66
-1.96890e-02,1.66,1.6
-1.96886e-02,1.66,1.66
-1.96883e-02,1.62,1.6
-1.96880e-02,1.66,1.68
-1.96877e-02,1.64,1.62
-1.96874e-02,1.64,1.68
-1.96870e-02,1.64,1.62
-1.96867e-02,1.64,1.68
-1.96864e-02,1.64,1.62
-1.96861e-02,1.66,1.68
-1.96858e-02,1.66,1.62
-1.96854e-02,1.66,1.68
-1.96851e-02,1.64,1.62
-1.96848e-02,1.66,1.68
-1.96845e-02,1.64,1.62
-1.96842e-02,1.66,1.68
-1.96838e-02,1.66,1.62
-1.96835e-02,1.62,1.68
-1.96832e-02,1.64,1.62
-1.96829e-02,1.66,1.66
-1.96826e-02,1.64,1.62
-1.96822e-02,1.64,1.68
-1.96819e-02,1.64,1.6
-1.96816e-02,1.66,1.68
-1.96813e-02,1.64,1.62
-1.96810e-02,1.64,1.68
-1.96806e-02,1.66,1.62
-1.96803e-02,1.64,1.68
-1.96800e-02,1.64,1.62
-1.96797e-02,1.64,1.68
-1.96794e-02,1.66,1.62
-1.96790e-02,1.64,1.68
-1.96787e-02,1.64,1.62
-1.96784e-02,1.64,1.68
-1.96781e-02,1.64,1.6
-1.96778e-02,1.64,1.68
-1.96774e-02,1.64,1.6
-1.96771e-02,1.64,1.68
-1.96768e-02,1.64,1.6
-1.96765e-02,1.62,1.68
-1.96762e-02,1.64,1.6
-1.96758e-02,1.64,1.66
-1.96755e-02,1.62,1.6
-1.96752e-02,1.64,1.66
-1.96749e-02,1.64,1.6
-1.96746e-02,1.66,1.7
-1.96742e-02,1.66,1.6
-1.96739e-02,1.64,1.68
-1.96736e-02,1.66,1.62
-1.96733e-02,1.66,1.68
-1.96730e-02,1.64,1.62
-1.96726e-02,1.64,1.68
-1.96723e-02,1.62,1.62
-1.96720e-02,1.64,1.68
-1.96717e-02,1.64,1.62
-1.96714e-02,1.66,1.68
-1.96710e-02,1.64,1.6
-1.96707e-02,1.62,1.68
-1.96704e-02,1.64,1.6
-1.96701e-02,1.62,1.68
-1.96698e-02,1.64,1.6
-1.96694e-02,1.66,1.68
-1.96691e-02,1.64,1.6
-1.96688e-02,1.66,1.68
-1.96685e-02,1.66,1.62
-1.96682e-02,1.64,1.68
-1.96678e-02,1.66,1.6
-1.96675e-02,1.64,1.68
-1.96672e-02,1.64,1.62
-1.96669e-02,1.64,1.68
-1.96666e-02,1.64,1.62
-1.96662e-02,1.64,1.68
-1.96659e-02,1.64,1.6
-1.96656e-02,1.66,1.68
-1.96653e-02,1.64,1.62
-1.96650e-02,1.64,1.68
-1.96646e-02,1.66,1.6
-1.96643e-02,1.64,1.68
-1.96640e-02,1.64,1.6
-1.96637e-02,1.64,1.68
-1.96634e-02,1.64,1.6
-1.96630e-02,1.68,1.7
-1.96627e-02,1.64,1.62
-1.96624e-02,1.64,1.68
-1.96621e-02,1.64,1.62
-1.96618e-02,1.66,1.68
-1.96614e-02,1.66,1.62
-1.96611e-02,1.64,1.68
-1.96608e-02,1.68,1.62
-1.96605e-02,1.64,1.68
-1.96602e-02,1.68,1.62
-1.96598e-02,1.66,1.68
-1.96595e-02,1.66,1.62
-1.96592e-02,1.64,1.68
-1.96589e-02,1.66,1.62
-1.96586e-02,1.66,1.68
-1.96582e-02,1.66,1.62
-1.96579e-02,1.64,1.68
-1.96576e-02,1.66,1.62
-1.96573e-02,1.66,1.68
-1.96570e-02,1.66,1.62
-1.96566e-02,1.66,1.68
-1.96563e-02,1.66,1.62
-1.96560e-02,1.66,1.68
-1.96557e-02,1.68,1.62
-1.96554e-02,1.64,1.7
-1.96550e-02,1.64,1.62
-1.96547e-02,1.66,1.7
-1.96544e-02,1.66,1.62
-1.96541e-02,1.66,1.68
-1.96538e-02,1.66,1.62
-1.96534e-02,1.66,1.68
-1.96531e-02,1.66,1.62
-1.96528e-02,1.64,1.68
-1.96525e-02,1.64,1.62
-1.96522e-02,1.64,1.7
-1.96518e-02,1.66,1.6
-1.96515e-02,1.64,1.68
-1.96512e-02,1.66,1.62
-1.96509e-02,1.66,1.68
-1.96506e-02,1.66,1.62
-1.96502e-02,1.66,1.68
-1.96499e-02,1.64,1.62
-1.96496e-02,1.66,1.68
-1.96493e-02,1.64,1.62
-1.96490e-02,1.64,1.68
-1.96486e-02,1.68,1.62
-1.96483e-02,1.66,1.7
-1.96480e-02,1.66,1.62
-1.96477e-02,1.64,1.68
-1.96474e-02,1.64,1.62
-1.96470e-02,1.64,1.7
-1.96467e-02,1.64,1.62
-1.96464e-02,1.66,1.68
-1.96461e-02,1.66,1.62
-1.96458e-02,1.64,1.68
-1.96454e-02,1.66,1.62
-1.96451e-02,1.64,1.68
-1.96448e-02,1.66,1.62
-1.96445e-02,1.64,1.68
-1.96442e-02,1.66,1.62
-1.96438e-02,1.66,1.68
-1.96435e-02,1.66,1.6
-1.96432e-02,1.66,1.7
-1.96429e-02,1.64,1.62
-1.96426e-02,1.66,1.68
-1.96422e-02,1.66,1.62
-1.96419e-02,1.64,1.68
-1.96416e-02,1.64,1.6
-1.96413e-02,1.64,1.7
-1.96410e-02,1.64,1.62
-1.96406e-02,1.64,1.7
-1.96403e-02,1.64,1.62
-1.96400e-02,1.66,1.68
-1.96397e-02,1.64,1.6
-1.96394e-02,1.64,1.68
-1.96390e-02,1.64,1.62
-1.96387e-02,1.62,1.68
-1.96384e-02,1.64,1.62
-1.96381e-02,1.64,1.68
-1.96378e-02,1.64,1.62
-1.96374e-02,1.66,1.68
-1.96371e-02,1.66,1.62
-1.96368e-02,1.66,1.68
-1.96365e-02,1.64,1.62
-1.96362e-02,1.66,1.68
-1.96358e-02,1.66,1.62
-1.96355e-02,1.62,1.68
-1.96352e-02,1.64,1.6
-1.96349e-02,1.66,1.68
-1.96346e-02,1.66,1.62
-1.96342e-02,1.64,1.68
-1.96339e-02,1.64,1.6
-1.96336e-02,1.64,1.68
-1.96333e-02,1.62,1.6
-1.96330e-02,1.64,1.68
-1.96326e-02,1.66,1.6
-1.96323e-02,1.62,1.66
-1.96320e-02,1.64,1.6
-1.96317e-02,1.62,1.66
-1.96314e-02,1.62,1.6
-1.96310e-02,1.62,1.66
-1.96307e-02,1.64,1.6
-1.96304e-02,1.64,1.68
-1.96301e-02,1.64,1.62
-1.96298e-02,1.64,1.68
-1.96294e-02,1.64,1.62
-1.96291e-02,1.64,1.68
-1.96288e-02,1.62,1.6
-1.96285e-02,1.62,1.66
-1.96282e-02,1.64,1.6
-1.96278e-02,1.62,1.68
-1.96275e-02,1.62,1.6
-1.96272e-02,1.64,1.68
-1.96269e-02,1.64,1.6
-1.96266e-02,1.64,1.68
-1.96262e-02,1.64,1.6
-1.96259e-02,1.64,1.66
-1.96256e-02,1.66,1.6
-1.96253e-02,1.64,1.66
-1.96250e-02,1.64,1.6
-1.96246e-02,1.62,1.66
-1.96243e-02,1.66,1.6
-1.96240e-02,1.66,1.66
-1.96237e-02,1.64,1.6
-1.96234e-02,1.64,1.68
-1.96230e-02,1.66,1.62
-1.96227e-02,1.64,1.68
-1.96224e-02,1.64,1.6
-1.96221e-02,1.64,1.68
-1.96218e-02,1.66,1.62
-1.96214e-02,1.66,1.68
-1.96211e-02,1.64,1.62
-1.96208e-02,1.66,1.68
-1.96205e-02,1.64,1.6
-1.96202e-02,1.66,1.68
-1.96198e-02,1.66,1.62
-1.96195e-02,1.62,1.68
-1.96192e-02,1.66,1.62
-1.96189e-02,1.64,1.68
-1.96186e-02,1.64,1.6
-1.96182e-02,1.62,1.68
-1.96179e-02,1.62,1.6
-1.96176e-02,1.66,1.68
-1.96173e-02,1.64,1.62
-1.96170e-02,1.64,1.68
-1.96166e-02,1.66,1.62
-1.96163e-02,1.64,1.68
-1.96160e-02,1.66,1.62
-1.96157e-02,1.64,1.68
-1.96154e-02,1.62,1.62
-1.96150e-02,1.64,1.68
-1.96147e-02,1.62,1.62
-1.96144e-02,1.66,1.68
-1.96141e-02,1.64,1.6
-1.96138e-02,1.64,1.68
-1.96134e-02,1.62,1.6
-1.96131e-02,1.64,1.68
-1.96128e-02,1.64,1.6
-1.96125e-02,1.62,1.68
-1.96122e-02,1.64,1.58
-1.96118e-02,1.64,1.68
-1.96115e-02,1.62,1.6
-1.96112e-02,1.66,1.66
-1.96109e-02,1.62,1.62
-1.96106e-02,1.62,1.66
-1.96102e-02,1.66,1.62
-1.96099e-02,1.62,1.68
-1.96096e-02,1.66,1.6
-1.96093e-02,1.62,1.66
-1.96090e-02,1.64,1.6
-1.96086e-02,1.64,1.68
-1.96083e-02,1.62,1.6
-1.96080e-02,1.62,1.66
-1.96077e-02,1.62,1.6
-1.96074e-02,1.64,1.66
-1.96070e-02,1.64,1.6
-1.96067e-02,1.62,1.66
-1.96064e-02,1.64,1.6
-1.96061e-02,1.62,1.66
-1.96058e-02,1.62,1.6
-1.96054e-02,1.64,1.66
-1.96051e-02,1.64,1.6
-1.96048e-02,1.64,1.66
-1.96045e-02,1.62,1.6
-1.96042e-02,1.62,1.66
-1.96038e-02,1.62,1.6
-1.96035e-02,1.62,1.68
-1.96032e-02,1.62,1.6
-1.96029e-02,1.64,1.66
-1.96026e-02,1.64,1.6
-1.96022e-02,1.62,1.66
-1.96019e-02,1.62,1.6
-1.96016e-02,1.64,1.68
-1.96013e-02,1.62,1.6
-1.96010e-02,1.62,1.66
-1.96006e-02,1.64,1.6
-1.96003e-02,1.62,1.66
-1.96000e-02,1.66,1.6
-1.95997e-02,1.62,1.66
-1.95994e-02,1.64,1.6
-1.95990e-02,1.64,1.66
-1.95987e-02,1.64,1.6
-1.95984e-02,1.62,1.68
-1.95981e-02,1.62,1.62
-1.95978e-02,1.64,1.68
-1.95974e-02,1.64,1.6
-1.95971e-02,1.62,1.68
-1.95968e-02,1.66,1.6
-1.95965e-02,1.62,1.68
-1.95962e-02,1.64,1.6
-1.95958e-02,1.66,1.68
-1.95955e-02,1.62,1.6
-1.95952e-02,1.66,1.68
-1.95949e-02,1.64,1.62
-1.95946e-02,1.64,1.66
-1.95942e-02,1.66,1.62
-1.95939e-02,1.66,1.68
-1.95936e-02,1.66,1.62
-1.95933e-02,1.64,1.68
-1.95930e-02,1.64,1.62
-1.95926e-02,1.66,1.68
-1.95923e-02,1.66,1.62
-1.95920e-02,1.66,1.68
-1.95917e-02,1.66,1.62
-1.95914e-02,1.66,1.68
-1.95910e-02,1.66,1.62
-1.95907e-02,1.64,1.68
-1.95904e-02,1.66,1.62
-1.95901e-02,1.64,1.68
-1.95898e-02,1.64,1.62
-1.95894e-02,1.66,1.68
-1.95891e-02,1.66,1.62
-1.95888e-02,1.68,1.68
-1.95885e-02,1.64,1.62
-1.95882e-02,1.66,1.68
-1.95878e-02,1.68,1.62
-1.95875e-02,1.66,1.68
-1.95872e-02,1.66,1.62
-1.95869e-02,1.64,1.68
-1.95866e-02,1.64,1.64
-1.95862e-02,1.66,1.68
-1.95859e-02,1.66,1.62
-1.95856e-02,1.68,1.68
-1.95853e-02,1.68,1.64
-1.95850e-02,1.66,1.7
-1.95846e-02,1.68,1.64
-1.95843e-02,1.66,1.7
-1.95840e-02,1.66,1.64
-1.95837e-02,1.66,1.7
-1.95834e-02,1.7,1.64
-1.95830e-02,1.66,1.7
-1.95827e-02,1.66,1.62
-1.95824e-02,1.66,1.7
-1.95821e-02,1.66,1.62
-1.95818e-02,1.66,1.68
-1.95814e-02,1.66,1.62
-1.95811e-02,1.66,1.68
-1.95808e-02,1.66,1.62
-1.95805e-02,1.66,1.7
-1.95802e-02,1.66,1.62
-1.95798e-02,1.66,1.7
-1.95795e-02,1.64,1.64
-1.95792e-02,1.64,1.68
-1.95789e-02,1.64,1.62
-1.95786e-02,1.66,1.68
-1.95782e-02,1.66,1.62
-1.95779e-02,1.62,1.68
-1.95776e-02,1.64,1.62
-1.95773e-02,1.62,1.68
-1.95770e-02,1.64,1.6
-1.95766e-02,1.64,1.68
-1.95763e-02,1.64,1.6
-1.95760e-02,1.66,1.68
-1.95757e-02,1.64,1.6
-1.95754e-02,1.62,1.68
-1.95750e-02,1.64,1.6
-1.95747e-02,1.64,1.68
-1.95744e-02,1.66,1.62
-1.95741e-02,1.66,1.68
-1.95738e-02,1.64,1.62
-1.95734e-02,1.64,1.68
-1.95731e-02,1.66,1.62
-1.95728e-02,1.64,1.66
-1.95725e-02,1.64,1.6
-1.95722e-02,1.64,1.68
-1.95718e-02,1.66,1.6
-1.95715e-02,1.62,1.68
-1.95712e-02,1.66,1.6
-1.95709e-02,1.62,1.66
-1.95706e-02,1.62,1.6
-1.95702e-02,1.64,1.66
-1.95699e-02,1.64,1.6
-1.95696e-02,1.66,1.66
-1.95693e-02,1.64,1.6
-1.95690e-02,1.64,1.68
-1.95686e-02,1.66,1.58
-1.95683e-02,1.64,1.66
-1.95680e-02,1.62,1.6
-1.95677e-02,1.64,1.68
-1.95674e-02,1.64,1.6
-1.95670e-02,1.66,1.66
-1.95667e-02,1.64,1.62
-1.95664e-02,1.64,1.68
-1.95661e-02,1.64,1.62
-1.95658e-02,1.64,1.68
-1.95654e-02,1.64,1.6
-1.95651e-02,1.66,1.68
-1.95648e-02,1.64,1.6
-1.95645e-02,1.66,1.68
-1.95642e-02,1.66,1.6
-1.95638e-02,1.64,1.68
-1.95635e-02,1.64,1.6
-1.95632e-02,1.66,1.68
-1.95629e-02,1.64,1.6
-1.95626e-02,1.62,1.68
-1.95622e-02,1.66,1.62
-1.95619e-02,1.64,1.68
-1.95616e-02,1.64,1.6
-1.95613e-02,1.66,1.68
-1.95610e-02,1.64,1.6
-1.95606e-02,1.66,1.68
-1.95603e-02,1.64,1.62
-1.95600e-02,1.66,1.68
-1.95597e-02,1.62,1.62
-1.95594e-02,1.66,1.68
-1.95590e-02,1.66,1.6
-1.95587e-02,1.64,1.68
-1.95584e-02,1.64,1.62
-1.95581e-02,1.64,1.68
-1.95578e-02,1.64,1.6
-1.95574e-02,1.64,1.68
-1.95571e-02,1.64,1.62
-1.95568e-02,1.64,1.68
-1.95565e-02,1.66,1.6
-1.95562e-02,1.64,1.68
-1.95558e-02,1.64,1.6
-1.95555e-02,1.62,1.68
-1.95552e-02,1.66,1.62
-1.95549e-02,1.64,1.68
-1.95546e-02,1.62,1.62
-1.95542e-02,1.62,1.68
-1.95539e-02,1.64,1.6
-1.95536e-02,1.62,1.68
-1.95533e-02,1.64,1.62
-1.95530e-02,1.64,1.68
-1.95526e-02,1.66,1.6
-1.95523e-02,1.64,1.68
-1.95520e-02,1.66,1.62
-1.95517e-02,1.64,1.68
-1.95514e-02,1.62,1.6
-1.95510e-02,1.66,1.66
-1.95507e-02,1.62,1.6
-1.95504e-02,1.66,1.66
-1.95501e-02,1.64,1.6
-1.95498e-02,1.62,1.66
-1.95494e-02,1.64,1.6
-1.95491e-02,1.62,1.68
-1.95488e-02,1.64,1.6
-1.95485e-02,1.64,1.68
-1.95482e-02,1.62,1.6
-1.95478e-02,1.64,1.66
-1.95475e-02,1.62,1.6
-1.95472e-02,1.64,1.66
-1.95469e-02,1.62,1.6
-1.95466e-02,1.64,1.66
-1.95462e-02,1.66,1.6
-1.95459e-02,1.62,1.66
-1.95456e-02,1.64,1.6
-1.95453e-02,1.62,1.66
-1.95450e-02,1.66,1.6
-1.95446e-02,1.64,1.66
-1.95443e-02,1.62,1.6
-1.95440e-02,1.62,1.66
-1.95437e-02,1.62,1.58
-1.95434e-02,1.64,1.66
-1.95430e-02,1.64,1.6
-1.95427e-02,1.62,1.68
-1.95424e-02,1.68,1.6
-1.95421e-02,1.62,1.68
-1.95418e-02,1.62,1.56
-1.95414e-02,1.64,1.68
-1.95411e-02,1.62,1.6
-1.95408e-02,1.64,1.66
-1.95405e-02,1.62,1.6
-1.95402e-02,1.62,1.66
-1.95398e-02,1.64,1.6
-1.95395e-02,1.62,1.66
-1.95392e-02,1.62,1.6
-1.95389e-02,1.62,1.66
-1.95386e-02,1.64,1.58
-1.95382e-02,1.64,1.68
-1.95379e-02,1.62,1.58
-1.95376e-02,1.64,1.66
-1.95373e-02,1.62,1.6
-1.95370e-02,1.64,1.66
-1.95366e-02,1.62,1.6
-1.95363e-02,1.62,1.66
-1.95360e-02,1.62,1.6
-1.95357e-02,1.64,1.66
-1.95354e-02,1.64,1.6
-1.95350e-02,1.64,1.66
-1.95347e-02,1.62,1.6
-1.95344e-02,1.62,1.66
-1.95341e-02,1.6,1.58
-1.95338e-02,1.64,1.68
-1.95334e-02,1.64,1.6
-1.95331e-02,1.62,1.66
-1.95328e-02,1.64,1.6
-1.95325e-02,1.62,1.66
-1.95322e-02,1.62,1.6
-1.95318e-02,1.6,1.66
-1.95315e-02,1.64,1.6
-1.95312e-02,1.66,1.66
-1.95309e-02,1.62,1.6
-1.95306e-02,1.62,1.66
-1.95302e-02,1.64,1.6
-1.95299e-02,1.64,1.66
-1.95296e-02,1.64,1.6
-1.95293e-02,1.64,1.68
-1.95290e-02,1.64,1.6
-1.95286e-02,1.66,1.68
-1.95283e-02,1.64,1.6
-1.95280e-02,1.64,1.68
-1.95277e-02,1.66,1.6
-1.95274e-02,1.64,1.68
-1.95270e-02,1.64,1.62
-1.95267e-02,1.64,1.66
-1.95264e-02,1.64,1.6
-1.95261e-02,1.64,1.68
-1.95258e-02,1.62,1.6
-1.95254e-02,1.66,1.68
-1.95251e-02,1.64,1.62
-1.95248e-02,1.66,1.68
-1.95245e-02,1.64,1.62
-1.95242e-02,1.66,1.68
-1.95238e-02,1.68,1.62
-1.95235e-02,1.66,1.68
-1.95232e-02,1.66,1.62
-1.95229e-02,1.66,1.7
