000_Diversikum/Testaufbau/Golfball/2/Golfball.CSV

Model,MSO2024
Firmware Version,1.35

Point Format,Y,
Horizontal Units,S,
Horizontal Scale,0.01,
Sample Interval,8e-07,
Filter Frequency,2e+08,
Record Length,125000,
Gating,0.0% to 100.0%,
Probe Attenuation,10,
Vertical Units,V,
Vertical Offset,1.6,
Vertical Scale,0.3,
Label,,
TIME,CH1,CH1 Peak Detect
-2.00912e-02,1.648,1.672
-2.00904e-02,1.636,1.612
-2.00896e-02,1.636,1.672
-2.00888e-02,1.648,1.6
-2.00880e-02,1.624,1.672
-2.00872e-02,1.648,1.576
-2.00864e-02,1.648,1.684
-2.00856e-02,1.636,1.612
-2.00848e-02,1.636,1.672
-2.00840e-02,1.648,1.612
-2.00832e-02,1.636,1.672
-2.00824e-02,1.624,1.612
-2.00816e-02,1.624,1.684
-2.00808e-02,1.624,1.612
-2.00800e-02,1.636,1.672
-2.00792e-02,1.624,1.6
-2.00784e-02,1.624,1.672
-2.00776e-02,1.636,1.6
-2.00768e-02,1.612,1.672
-2.00760e-02,1.612,1.6
-2.00752e-02,1.66,1.672
-2.00744e-02,1.636,1.588
-2.00736e-02,1.636,1.684
-2.00728e-02,1.66,1.6
-2.00720e-02,1.624,1.66
-2.00712e-02,1.636,1.6
-2.00704e-02,1.648,1.672
-2.00696e-02,1.648,1.6
-2.00688e-02,1.648,1.66
-2.00680e-02,1.636,1.6
-2.00672e-02,1.636,1.684
-2.00664e-02,1.648,1.612
-2.00656e-02,1.612,1.672
-2.00648e-02,1.648,1.6
-2.00640e-02,1.636,1.684
-2.00632e-02,1.636,1.588
-2.00624e-02,1.648,1.684
-2.00616e-02,1.612,1.612
-2.00608e-02,1.636,1.672
-2.00600e-02,1.648,1.6
-2.00592e-02,1.636,1.672
-2.00584e-02,1.636,1.612
-2.00576e-02,1.636,1.672
-2.00568e-02,1.612,1.612
-2.00560e-02,1.66,1.672
-2.00552e-02,1.636,1.6
-2.00544e-02,1.648,1.672
-2.00536e-02,1.612,1.6
-2.00528e-02,1.636,1.696
-2.00520e-02,1.66,1.612
-2.00512e-02,1.648,1.672
-2.00504e-02,1.636,1.612
-2.00496e-02,1.624,1.684
-2.00488e-02,1.636,1.612
-2.00480e-02,1.66,1.684
-2.00472e-02,1.648,1.612
-2.00464e-02,1.636,1.684
-2.00456e-02,1.636,1.588
-2.00448e-02,1.636,1.684
-2.00440e-02,1.648,1.6
-2.00432e-02,1.624,1.672
-2.00424e-02,1.624,1.612
-2.00416e-02,1.636,1.672
-2.00408e-02,1.648,1.612
-2.00400e-02,1.66,1.672
-2.00392e-02,1.648,1.6
-2.00384e-02,1.648,1.672
-2.00376e-02,1.648,1.6
-2.00368e-02,1.66,1.684
-2.00360e-02,1.648,1.612
-2.00352e-02,1.66,1.696
-2.00344e-02,1.648,1.612
-2.00336e-02,1.684,1.708
-2.00328e-02,1.66,1.636
-2.00320e-02,1.66,1.696
-2.00312e-02,1.672,1.636
-2.00304e-02,1.672,1.696
-2.00296e-02,1.66,1.636
-2.00288e-02,1.648,1.696
-2.00280e-02,1.648,1.624
-2.00272e-02,1.66,1.696
-2.00264e-02,1.648,1.624
-2.00256e-02,1.672,1.696
-2.00248e-02,1.66,1.6
-2.00240e-02,1.636,1.696
-2.00232e-02,1.672,1.612
-2.00224e-02,1.636,1.672
-2.00216e-02,1.636,1.6
-2.00208e-02,1.636,1.672
-2.00200e-02,1.636,1.6
-2.00192e-02,1.624,1.672
-2.00184e-02,1.636,1.612
-2.00176e-02,1.648,1.672
-2.00168e-02,1.648,1.6
-2.00160e-02,1.648,1.672
-2.00152e-02,1.636,1.588
-2.00144e-02,1.624,1.696
-2.00136e-02,1.636,1.612
-2.00128e-02,1.636,1.672
-2.00120e-02,1.636,1.612
-2.00112e-02,1.648,1.672
-2.00104e-02,1.624,1.612
-2.00096e-02,1.636,1.672
-2.00088e-02,1.636,1.6
-2.00080e-02,1.648,1.672
-2.00072e-02,1.636,1.612
-2.00064e-02,1.648,1.684
-2.00056e-02,1.648,1.6
-2.00048e-02,1.648,1.696
-2.00040e-02,1.636,1.612
-2.00032e-02,1.636,1.672
-2.00024e-02,1.636,1.6
-2.00016e-02,1.624,1.672
-2.00008e-02,1.612,1.6
-2.00000e-02,1.624,1.66
-1.99992e-02,1.624,1.6
-1.99984e-02,1.624,1.66
-1.99976e-02,1.624,1.588
-1.99968e-02,1.636,1.66
-1.99960e-02,1.648,1.564
-1.99952e-02,1.636,1.672
-1.99944e-02,1.648,1.6
-1.99936e-02,1.636,1.66
-1.99928e-02,1.636,1.588
-1.99920e-02,1.636,1.672
-1.99912e-02,1.648,1.612
-1.99904e-02,1.648,1.672
-1.99896e-02,1.648,1.612
-1.99888e-02,1.66,1.684
-1.99880e-02,1.648,1.612
-1.99872e-02,1.672,1.684
-1.99864e-02,1.66,1.624
-1.99856e-02,1.672,1.696
-1.99848e-02,1.66,1.612
-1.99840e-02,1.66,1.696
-1.99832e-02,1.66,1.624
-1.99824e-02,1.672,1.696
-1.99816e-02,1.66,1.624
-1.99808e-02,1.66,1.696
-1.99800e-02,1.66,1.624
-1.99792e-02,1.636,1.696
-1.99784e-02,1.66,1.624
-1.99776e-02,1.66,1.696
-1.99768e-02,1.636,1.6
-1.99760e-02,1.648,1.696
-1.99752e-02,1.636,1.612
-1.99744e-02,1.636,1.672
-1.99736e-02,1.624,1.6
-1.99728e-02,1.612,1.672
-1.99720e-02,1.624,1.6
-1.99712e-02,1.612,1.672
-1.99704e-02,1.624,1.6
-1.99696e-02,1.624,1.66
-1.99688e-02,1.636,1.576
-1.99680e-02,1.624,1.684
-1.99672e-02,1.66,1.6
-1.99664e-02,1.636,1.672
-1.99656e-02,1.648,1.6
-1.99648e-02,1.648,1.684
-1.99640e-02,1.636,1.6
-1.99632e-02,1.648,1.684
-1.99624e-02,1.648,1.612
-1.99616e-02,1.66,1.684
-1.99608e-02,1.648,1.612
-1.99600e-02,1.636,1.684
-1.99592e-02,1.66,1.612
-1.99584e-02,1.66,1.696
-1.99576e-02,1.648,1.612
-1.99568e-02,1.648,1.684
-1.99560e-02,1.648,1.624
-1.99552e-02,1.636,1.684
-1.99544e-02,1.648,1.612
-1.99536e-02,1.636,1.684
-1.99528e-02,1.636,1.612
-1.99520e-02,1.636,1.684
-1.99512e-02,1.648,1.612
-1.99504e-02,1.648,1.672
-1.99496e-02,1.624,1.6
-1.99488e-02,1.648,1.696
-1.99480e-02,1.636,1.612
-1.99472e-02,1.66,1.684
-1.99464e-02,1.636,1.612
-1.99456e-02,1.648,1.684
-1.99448e-02,1.648,1.624
-1.99440e-02,1.66,1.684
-1.99432e-02,1.648,1.612
-1.99424e-02,1.672,1.684
-1.99416e-02,1.648,1.612
-1.99408e-02,1.636,1.684
-1.99400e-02,1.66,1.588
-1.99392e-02,1.636,1.696
-1.99384e-02,1.648,1.612
-1.99376e-02,1.648,1.672
-1.99368e-02,1.636,1.612
-1.99360e-02,1.66,1.684
-1.99352e-02,1.636,1.612
-1.99344e-02,1.636,1.684
-1.99336e-02,1.648,1.612
-1.99328e-02,1.648,1.672
-1.99320e-02,1.624,1.612
-1.99312e-02,1.624,1.684
-1.99304e-02,1.624,1.588
-1.99296e-02,1.624,1.684
-1.99288e-02,1.624,1.6
-1.99280e-02,1.624,1.66
-1.99272e-02,1.624,1.6
-1.99264e-02,1.636,1.66
-1.99256e-02,1.624,1.6
-1.99248e-02,1.612,1.672
-1.99240e-02,1.636,1.588
-1.99232e-02,1.648,1.66
-1.99224e-02,1.636,1.6
-1.99216e-02,1.636,1.672
-1.99208e-02,1.624,1.588
-1.99200e-02,1.648,1.684
-1.99192e-02,1.672,1.612
-1.99184e-02,1.66,1.696
-1.99176e-02,1.66,1.612
-1.99168e-02,1.66,1.684
-1.99160e-02,1.636,1.612
-1.99152e-02,1.66,1.684
-1.99144e-02,1.624,1.612
-1.99136e-02,1.648,1.672
-1.99128e-02,1.636,1.612
-1.99120e-02,1.624,1.684
-1.99112e-02,1.636,1.6
-1.99104e-02,1.636,1.684
-1.99096e-02,1.648,1.6
-1.99088e-02,1.648,1.696
-1.99080e-02,1.648,1.612
-1.99072e-02,1.624,1.672
-1.99064e-02,1.66,1.6
-1.99056e-02,1.624,1.672
-1.99048e-02,1.648,1.6
-1.99040e-02,1.66,1.672
-1.99032e-02,1.636,1.6
-1.99024e-02,1.648,1.672
-1.99016e-02,1.648,1.6
-1.99008e-02,1.648,1.672
-1.99000e-02,1.624,1.6
-1.98992e-02,1.66,1.696
-1.98984e-02,1.648,1.612
-1.98976e-02,1.636,1.672
-1.98968e-02,1.636,1.612
-1.98960e-02,1.636,1.672
-1.98952e-02,1.66,1.612
-1.98944e-02,1.648,1.684
-1.98936e-02,1.648,1.624
-1.98928e-02,1.636,1.684
-1.98920e-02,1.648,1.612
-1.98912e-02,1.66,1.684
-1.98904e-02,1.66,1.6
-1.98896e-02,1.648,1.696
-1.98888e-02,1.66,1.612
-1.98880e-02,1.648,1.684
-1.98872e-02,1.636,1.612
-1.98864e-02,1.648,1.684
-1.98856e-02,1.636,1.612
-1.98848e-02,1.636,1.684
-1.98840e-02,1.636,1.612
-1.98832e-02,1.624,1.672
-1.98824e-02,1.624,1.6
-1.98816e-02,1.648,1.672
-1.98808e-02,1.612,1.588
-1.98800e-02,1.624,1.684
-1.98792e-02,1.624,1.6
-1.98784e-02,1.636,1.66
-1.98776e-02,1.636,1.588
-1.98768e-02,1.612,1.66
-1.98760e-02,1.636,1.588
-1.98752e-02,1.624,1.672
-1.98744e-02,1.636,1.6
-1.98736e-02,1.648,1.672
-1.98728e-02,1.636,1.6
-1.98720e-02,1.624,1.66
-1.98712e-02,1.636,1.576
-1.98704e-02,1.66,1.672
-1.98696e-02,1.624,1.6
-1.98688e-02,1.612,1.66
-1.98680e-02,1.636,1.6
-1.98672e-02,1.636,1.66
-1.98664e-02,1.636,1.6
-1.98656e-02,1.636,1.672
-1.98648e-02,1.648,1.612
-1.98640e-02,1.66,1.672
-1.98632e-02,1.648,1.612
-1.98624e-02,1.636,1.672
-1.98616e-02,1.648,1.612
-1.98608e-02,1.66,1.696
-1.98600e-02,1.66,1.624
-1.98592e-02,1.684,1.684
-1.98584e-02,1.648,1.624
-1.98576e-02,1.648,1.684
-1.98568e-02,1.648,1.612
-1.98560e-02,1.66,1.684
-1.98552e-02,1.648,1.612
-1.98544e-02,1.636,1.672
-1.98536e-02,1.624,1.588
-1.98528e-02,1.636,1.684
-1.98520e-02,1.624,1.6
-1.98512e-02,1.624,1.672
-1.98504e-02,1.612,1.6
-1.98496e-02,1.636,1.66
-1.98488e-02,1.636,1.588
-1.98480e-02,1.612,1.66
-1.98472e-02,1.636,1.6
-1.98464e-02,1.624,1.66
-1.98456e-02,1.624,1.588
-1.98448e-02,1.636,1.672
-1.98440e-02,1.624,1.6
-1.98432e-02,1.636,1.672
-1.98424e-02,1.636,1.588
-1.98416e-02,1.636,1.684
-1.98408e-02,1.624,1.6
-1.98400e-02,1.636,1.672
-1.98392e-02,1.648,1.6
-1.98384e-02,1.624,1.672
-1.98376e-02,1.612,1.6
-1.98368e-02,1.624,1.66
-1.98360e-02,1.636,1.588
-1.98352e-02,1.624,1.66
-1.98344e-02,1.636,1.588
-1.98336e-02,1.612,1.66
-1.98328e-02,1.624,1.576
-1.98320e-02,1.636,1.672
-1.98312e-02,1.612,1.588
-1.98304e-02,1.6,1.672
-1.98296e-02,1.6,1.6
-1.98288e-02,1.624,1.66
-1.98280e-02,1.624,1.588
-1.98272e-02,1.612,1.66
-1.98264e-02,1.624,1.6
-1.98256e-02,1.624,1.66
-1.98248e-02,1.612,1.588
-1.98240e-02,1.624,1.648
-1.98232e-02,1.6,1.576
-1.98224e-02,1.612,1.672
-1.98216e-02,1.636,1.6
-1.98208e-02,1.648,1.66
-1.98200e-02,1.636,1.588
-1.98192e-02,1.636,1.66
-1.98184e-02,1.66,1.6
-1.98176e-02,1.66,1.672
-1.98168e-02,1.636,1.6
-1.98160e-02,1.66,1.672
-1.98152e-02,1.648,1.6
-1.98144e-02,1.648,1.672
-1.98136e-02,1.648,1.6
-1.98128e-02,1.636,1.684
-1.98120e-02,1.648,1.612
-1.98112e-02,1.648,1.684
-1.98104e-02,1.636,1.612
-1.98096e-02,1.648,1.672
-1.98088e-02,1.636,1.612
-1.98080e-02,1.648,1.684
-1.98072e-02,1.66,1.612
-1.98064e-02,1.66,1.684
-1.98056e-02,1.6,1.612
-1.98048e-02,1.636,1.684
-1.98040e-02,1.648,1.6
-1.98032e-02,1.636,1.684
-1.98024e-02,1.636,1.6
-1.98016e-02,1.636,1.684
-1.98008e-02,1.636,1.6
-1.98000e-02,1.612,1.66
-1.97992e-02,1.636,1.6
-1.97984e-02,1.624,1.672
-1.97976e-02,1.624,1.588
-1.97968e-02,1.624,1.66
-1.97960e-02,1.636,1.576
-1.97952e-02,1.6,1.66
-1.97944e-02,1.612,1.588
-1.97936e-02,1.612,1.648
-1.97928e-02,1.624,1.588
-1.97920e-02,1.636,1.648
-1.97912e-02,1.624,1.588
-1.97904e-02,1.636,1.66
-1.97896e-02,1.624,1.6
-1.97888e-02,1.636,1.672
-1.97880e-02,1.648,1.6
-1.97872e-02,1.648,1.672
-1.97864e-02,1.636,1.6
-1.97856e-02,1.636,1.684
-1.97848e-02,1.636,1.6
-1.97840e-02,1.636,1.672
-1.97832e-02,1.636,1.6
-1.97824e-02,1.636,1.672
-1.97816e-02,1.648,1.6
-1.97808e-02,1.636,1.672
-1.97800e-02,1.648,1.6
-1.97792e-02,1.636,1.672
-1.97784e-02,1.648,1.612
-1.97776e-02,1.636,1.672
-1.97768e-02,1.66,1.6
-1.97760e-02,1.648,1.696
-1.97752e-02,1.648,1.612
-1.97744e-02,1.636,1.684
-1.97736e-02,1.648,1.612
-1.97728e-02,1.636,1.684
-1.97720e-02,1.66,1.612
-1.97712e-02,1.636,1.684
-1.97704e-02,1.648,1.612
-1.97696e-02,1.648,1.684
-1.97688e-02,1.636,1.612
-1.97680e-02,1.636,1.672
-1.97672e-02,1.636,1.612
-1.97664e-02,1.66,1.672
-1.97656e-02,1.636,1.6
-1.97648e-02,1.636,1.696
-1.97640e-02,1.66,1.6
-1.97632e-02,1.636,1.684
-1.97624e-02,1.648,1.612
-1.97616e-02,1.648,1.684
-1.97608e-02,1.636,1.612
-1.97600e-02,1.636,1.684
-1.97592e-02,1.636,1.612
-1.97584e-02,1.636,1.684
-1.97576e-02,1.648,1.612
-1.97568e-02,1.648,1.684
-1.97560e-02,1.66,1.6
-1.97552e-02,1.648,1.684
-1.97544e-02,1.66,1.612
-1.97536e-02,1.648,1.684
-1.97528e-02,1.648,1.612
-1.97520e-02,1.66,1.684
-1.97512e-02,1.648,1.624
-1.97504e-02,1.66,1.696
-1.97496e-02,1.66,1.624
-1.97488e-02,1.648,1.696
-1.97480e-02,1.636,1.624
-1.97472e-02,1.672,1.696
-1.97464e-02,1.66,1.612
-1.97456e-02,1.636,1.708
-1.97448e-02,1.672,1.624
-1.97440e-02,1.66,1.684
-1.97432e-02,1.648,1.624
-1.97424e-02,1.648,1.696
-1.97416e-02,1.66,1.624
-1.97408e-02,1.66,1.696
-1.97400e-02,1.66,1.624
-1.97392e-02,1.648,1.684
-1.97384e-02,1.648,1.612
-1.97376e-02,1.636,1.684
-1.97368e-02,1.672,1.6
-1.97360e-02,1.636,1.684
-1.97352e-02,1.648,1.624
-1.97344e-02,1.66,1.684
-1.97336e-02,1.672,1.624
-1.97328e-02,1.648,1.684
-1.97320e-02,1.648,1.624
-1.97312e-02,1.648,1.696
-1.97304e-02,1.66,1.612
-1.97296e-02,1.648,1.684
-1.97288e-02,1.648,1.612
-1.97280e-02,1.66,1.696
-1.97272e-02,1.648,1.612
-1.97264e-02,1.648,1.696
-1.97256e-02,1.648,1.624
-1.97248e-02,1.624,1.684
-1.97240e-02,1.66,1.612
-1.97232e-02,1.636,1.684
-1.97224e-02,1.66,1.612
-1.97216e-02,1.648,1.684
-1.97208e-02,1.648,1.612
-1.97200e-02,1.66,1.684
-1.97192e-02,1.636,1.6
-1.97184e-02,1.648,1.672
-1.97176e-02,1.636,1.588
-1.97168e-02,1.636,1.696
-1.97160e-02,1.648,1.6
-1.97152e-02,1.66,1.672
-1.97144e-02,1.648,1.6
-1.97136e-02,1.636,1.672
-1.97128e-02,1.636,1.6
-1.97120e-02,1.648,1.684
-1.97112e-02,1.648,1.612
-1.97104e-02,1.636,1.684
-1.97096e-02,1.624,1.612
-1.97088e-02,1.66,1.684
-1.97080e-02,1.648,1.588
-1.97072e-02,1.636,1.696
-1.97064e-02,1.636,1.612
-1.97056e-02,1.636,1.684
-1.97048e-02,1.648,1.612
-1.97040e-02,1.648,1.684
-1.97032e-02,1.66,1.612
-1.97024e-02,1.648,1.684
-1.97016e-02,1.648,1.612
-1.97008e-02,1.648,1.672
-1.97000e-02,1.624,1.6
-1.96992e-02,1.648,1.696
-1.96984e-02,1.648,1.612
-1.96976e-02,1.636,1.672
-1.96968e-02,1.636,1.6
-1.96960e-02,1.624,1.672
-1.96952e-02,1.624,1.6
-1.96944e-02,1.636,1.672
-1.96936e-02,1.624,1.6
-1.96928e-02,1.624,1.66
-1.96920e-02,1.612,1.588
-1.96912e-02,1.636,1.672
-1.96904e-02,1.636,1.576
-1.96896e-02,1.636,1.684
-1.96888e-02,1.636,1.588
-1.96880e-02,1.636,1.66
-1.96872e-02,1.636,1.6
-1.96864e-02,1.636,1.672
-1.96856e-02,1.636,1.612
-1.96848e-02,1.66,1.684
-1.96840e-02,1.66,1.612
-1.96832e-02,1.648,1.684
-1.96824e-02,1.66,1.624
-1.96816e-02,1.648,1.684
-1.96808e-02,1.66,1.6
-1.96800e-02,1.648,1.696
-1.96792e-02,1.648,1.636
-1.96784e-02,1.66,1.696
-1.96776e-02,1.648,1.624
-1.96768e-02,1.648,1.696
-1.96760e-02,1.66,1.612
-1.96752e-02,1.636,1.684
-1.96744e-02,1.648,1.612
-1.96736e-02,1.636,1.672
-1.96728e-02,1.648,1.6
-1.96720e-02,1.66,1.684
-1.96712e-02,1.636,1.612
-1.96704e-02,1.648,1.684
-1.96696e-02,1.648,1.588
-1.96688e-02,1.624,1.696
-1.96680e-02,1.636,1.612
-1.96672e-02,1.636,1.672
-1.96664e-02,1.648,1.6
-1.96656e-02,1.636,1.672
-1.96648e-02,1.648,1.612
-1.96640e-02,1.636,1.672
-1.96632e-02,1.636,1.6
-1.96624e-02,1.648,1.672
-1.96616e-02,1.696,1.612
-1.96608e-02,1.636,1.672
-1.96600e-02,1.66,1.6
-1.96592e-02,1.648,1.696
-1.96584e-02,1.636,1.612
-1.96576e-02,1.636,1.684
-1.96568e-02,1.648,1.624
-1.96560e-02,1.636,1.684
-1.96552e-02,1.648,1.624
-1.96544e-02,1.636,1.684
-1.96536e-02,1.636,1.612
-1.96528e-02,1.648,1.684
-1.96520e-02,1.66,1.612
-1.96512e-02,1.624,1.684
-1.96504e-02,1.636,1.588
-1.96496e-02,1.648,1.684
-1.96488e-02,1.636,1.6
-1.96480e-02,1.612,1.672
-1.96472e-02,1.624,1.6
-1.96464e-02,1.636,1.66
-1.96456e-02,1.624,1.6
-1.96448e-02,1.624,1.66
-1.96440e-02,1.624,1.6
-1.96432e-02,1.624,1.66
-1.96424e-02,1.636,1.588
-1.96416e-02,1.636,1.672
-1.96408e-02,1.636,1.6
-1.96400e-02,1.648,1.672
-1.96392e-02,1.636,1.588
-1.96384e-02,1.636,1.696
-1.96376e-02,1.648,1.612
-1.96368e-02,1.636,1.684
-1.96360e-02,1.66,1.612
-1.96352e-02,1.648,1.684
-1.96344e-02,1.648,1.612
-1.96336e-02,1.636,1.684
-1.96328e-02,1.648,1.6
-1.96320e-02,1.636,1.684
-1.96312e-02,1.612,1.612
-1.96304e-02,1.624,1.684
-1.96296e-02,1.648,1.6
-1.96288e-02,1.612,1.696
-1.96280e-02,1.648,1.612
-1.96272e-02,1.624,1.672
-1.96264e-02,1.636,1.612
-1.96256e-02,1.636,1.672
-1.96248e-02,1.636,1.6
-1.96240e-02,1.636,1.672
-1.96232e-02,1.648,1.6
-1.96224e-02,1.624,1.684
-1.96216e-02,1.636,1.612
-1.96208e-02,1.636,1.672
-1.96200e-02,1.6,1.576
-1.96192e-02,1.636,1.672
-1.96184e-02,1.66,1.6
-1.96176e-02,1.636,1.672
-1.96168e-02,1.636,1.6
-1.96160e-02,1.624,1.672
-1.96152e-02,1.636,1.6
-1.96144e-02,1.66,1.672
-1.96136e-02,1.648,1.612
-1.96128e-02,1.648,1.684
-1.96120e-02,1.648,1.6
-1.96112e-02,1.648,1.696
-1.96104e-02,1.66,1.612
-1.96096e-02,1.648,1.684
-1.96088e-02,1.636,1.624
-1.96080e-02,1.66,1.684
-1.96072e-02,1.672,1.624
-1.96064e-02,1.648,1.696
-1.96056e-02,1.66,1.624
-1.96048e-02,1.66,1.696
-1.96040e-02,1.648,1.624
-1.96032e-02,1.672,1.696
-1.96024e-02,1.648,1.624
-1.96016e-02,1.672,1.696
-1.96008e-02,1.66,1.612
-1.96000e-02,1.66,1.696
-1.95992e-02,1.648,1.624
-1.95984e-02,1.66,1.696
-1.95976e-02,1.66,1.612
-1.95968e-02,1.636,1.684
-1.95960e-02,1.648,1.612
-1.95952e-02,1.66,1.696
-1.95944e-02,1.636,1.612
-1.95936e-02,1.648,1.684
-1.95928e-02,1.612,1.612
-1.95920e-02,1.636,1.696
-1.95912e-02,1.66,1.588
-1.95904e-02,1.648,1.696
-1.95896e-02,1.648,1.612
-1.95888e-02,1.66,1.684
-1.95880e-02,1.66,1.624
-1.95872e-02,1.648,1.684
-1.95864e-02,1.648,1.624
-1.95856e-02,1.672,1.684
-1.95848e-02,1.672,1.624
-1.95840e-02,1.66,1.684
-1.95832e-02,1.636,1.624
-1.95824e-02,1.648,1.696
-1.95816e-02,1.66,1.588
-1.95808e-02,1.636,1.696
-1.95800e-02,1.624,1.612
-1.95792e-02,1.66,1.696
-1.95784e-02,1.66,1.612
-1.95776e-02,1.636,1.684
-1.95768e-02,1.636,1.612
-1.95760e-02,1.66,1.684
-1.95752e-02,1.636,1.612
-1.95744e-02,1.636,1.684
-1.95736e-02,1.636,1.612
-1.95728e-02,1.636,1.684
-1.95720e-02,1.636,1.6
-1.95712e-02,1.648,1.696
-1.95704e-02,1.636,1.612
-1.95696e-02,1.648,1.672
-1.95688e-02,1.66,1.612
-1.95680e-02,1.66,1.684
-1.95672e-02,1.672,1.612
-1.95664e-02,1.636,1.684
-1.95656e-02,1.636,1.612
-1.95648e-02,1.672,1.684
-1.95640e-02,1.636,1.624
-1.95632e-02,1.66,1.684
-1.95624e-02,1.648,1.612
-1.95616e-02,1.66,1.696
-1.95608e-02,1.636,1.612
-1.95600e-02,1.636,1.696
-1.95592e-02,1.636,1.612
-1.95584e-02,1.636,1.672
-1.95576e-02,1.648,1.6
-1.95568e-02,1.636,1.672
-1.95560e-02,1.612,1.6
-1.95552e-02,1.624,1.672
-1.95544e-02,1.624,1.6
-1.95536e-02,1.648,1.66
-1.95528e-02,1.636,1.588
-1.95520e-02,1.612,1.66
-1.95512e-02,1.612,1.588
-1.95504e-02,1.648,1.672
-1.95496e-02,1.624,1.6
-1.95488e-02,1.636,1.66
-1.95480e-02,1.636,1.588
-1.95472e-02,1.624,1.66
-1.95464e-02,1.636,1.6
-1.95456e-02,1.648,1.672
-1.95448e-02,1.636,1.6
-1.95440e-02,1.636,1.672
-1.95432e-02,1.636,1.612
-1.95424e-02,1.66,1.672
-1.95416e-02,1.636,1.6
-1.95408e-02,1.636,1.684
-1.95400e-02,1.66,1.612
-1.95392e-02,1.648,1.672
-1.95384e-02,1.636,1.6
-1.95376e-02,1.636,1.672
-1.95368e-02,1.624,1.612
-1.95360e-02,1.636,1.684
-1.95352e-02,1.66,1.6
-1.95344e-02,1.648,1.672
-1.95336e-02,1.612,1.612
-1.95328e-02,1.636,1.672
-1.95320e-02,1.66,1.6
-1.95312e-02,1.624,1.696
-1.95304e-02,1.636,1.612
-1.95296e-02,1.66,1.684
-1.95288e-02,1.66,1.624
-1.95280e-02,1.648,1.684
-1.95272e-02,1.672,1.624
-1.95264e-02,1.66,1.684
-1.95256e-02,1.66,1.624
-1.95248e-02,1.66,1.684
-1.95240e-02,1.672,1.624
-1.95232e-02,1.648,1.684
-1.95224e-02,1.648,1.612
-1.95216e-02,1.648,1.696
-1.95208e-02,1.636,1.612
-1.95200e-02,1.648,1.684
-1.95192e-02,1.636,1.612
-1.95184e-02,1.648,1.684
-1.95176e-02,1.648,1.6
-1.95168e-02,1.636,1.684
-1.95160e-02,1.648,1.6
-1.95152e-02,1.636,1.672
-1.95144e-02,1.636,1.588
-1.95136e-02,1.624,1.696
-1.95128e-02,1.648,1.612
-1.95120e-02,1.624,1.672
-1.95112e-02,1.624,1.6
-1.95104e-02,1.636,1.672
-1.95096e-02,1.612,1.6
-1.95088e-02,1.636,1.672
-1.95080e-02,1.612,1.6
-1.95072e-02,1.648,1.66
-1.95064e-02,1.636,1.6
-1.95056e-02,1.612,1.672
-1.95048e-02,1.636,1.588
-1.95040e-02,1.636,1.684
-1.95032e-02,1.636,1.6
-1.95024e-02,1.648,1.672
-1.95016e-02,1.648,1.6
-1.95008e-02,1.648,1.672
-1.95000e-02,1.636,1.612
-1.94992e-02,1.66,1.672
-1.94984e-02,1.648,1.612
-1.94976e-02,1.636,1.672
-1.94968e-02,1.648,1.612
-1.94960e-02,1.636,1.684
-1.94952e-02,1.66,1.6
-1.94944e-02,1.648,1.696
-1.94936e-02,1.66,1.6
-1.94928e-02,1.648,1.684
-1.94920e-02,1.648,1.624
-1.94912e-02,1.636,1.684
-1.94904e-02,1.648,1.624
-1.94896e-02,1.648,1.696
-1.94888e-02,1.672,1.612
-1.94880e-02,1.636,1.684
-1.94872e-02,1.636,1.612
-1.94864e-02,1.636,1.684
-1.94856e-02,1.636,1.588
-1.94848e-02,1.624,1.696
-1.94840e-02,1.636,1.6
-1.94832e-02,1.624,1.672
-1.94824e-02,1.624,1.588
-1.94816e-02,1.624,1.66
-1.94808e-02,1.636,1.6
-1.94800e-02,1.612,1.66
-1.94792e-02,1.636,1.588
-1.94784e-02,1.612,1.66
-1.94776e-02,1.612,1.588
-1.94768e-02,1.624,1.672
-1.94760e-02,1.612,1.588
-1.94752e-02,1.636,1.66
-1.94744e-02,1.636,1.6
-1.94736e-02,1.636,1.66
-1.94728e-02,1.624,1.6
-1.94720e-02,1.648,1.66
-1.94712e-02,1.636,1.6
-1.94704e-02,1.624,1.672
-1.94696e-02,1.636,1.612
-1.94688e-02,1.648,1.696
-1.94680e-02,1.636,1.612
-1.94672e-02,1.648,1.696
-1.94664e-02,1.648,1.624
-1.94656e-02,1.636,1.684
-1.94648e-02,1.648,1.612
-1.94640e-02,1.648,1.684
-1.94632e-02,1.636,1.612
-1.94624e-02,1.648,1.672
-1.94616e-02,1.636,1.6
-1.94608e-02,1.624,1.684
-1.94600e-02,1.648,1.588
-1.94592e-02,1.636,1.684
-1.94584e-02,1.636,1.6
-1.94576e-02,1.636,1.672
-1.94568e-02,1.636,1.6
-1.94560e-02,1.624,1.672
-1.94552e-02,1.612,1.588
-1.94544e-02,1.624,1.66
-1.94536e-02,1.612,1.588
-1.94528e-02,1.624,1.66
-1.94520e-02,1.636,1.588
-1.94512e-02,1.612,1.66
-1.94504e-02,1.636,1.576
-1.94496e-02,1.636,1.672
-1.94488e-02,1.636,1.588
-1.94480e-02,1.624,1.66
-1.94472e-02,1.612,1.6
